core_cm0.h:629:22:NVIC_EnableIRQ	16	static
core_cm0.h:688:22:NVIC_SetPriority	24	static
adc.c:9:13:adc_init_gpio	16	static
adc.c:17:6:adc_init	8	static
adc.c:48:6:adc_start	8	static
adc.c:52:6:ADC1_COMP_IRQHandler	8	static
adc.c:58:6:sensor_angle_gpio_init	8	static
adc.c:63:6:dma_init	8	static
adc.c:91:6:DMA1_Channel1_IRQHandler	8	static
